start point : loginPage.php
it has 2 db: stickies
             stickyuser
             db name:project2( this one should make trhough the command line"
work flow:
        - checks if username is in the database, if it is checks for hashed password and goes to stickyPage.php

       - if user inputs wrong username till 3 times consecutively, website let user try, but after 3 times try it will lock the user for 5 min
       
        - if the number of trying is less than 3 times and user is not locked, it will check the password
       
        - if username is not in the database-----> redirect user to signup page (registerPage.php)
	- ****if user loged in save user_id and user_name in the session ****
=============================================================================================================
in the registerPage.php
         -it checks if username is there in the db then does not let user choose that one, and shows message
	-it checks if password less than 5 character, if that is the case then show user the message
	-everything is fine:   insert user in the DB and redirect to loginpage.php
================================================================================================================
in stickyPage.php
       user can add notes( here my notes where nicer but at the end I dont know what happend to them, I cant write in the text anymore and close button is not nice:(
	
	user drag drops notes , each time it drops mouse down, 
			first Ajax: it send the information of top, left, zindex, content to the php (phpGetAjax.php )
			response text is successfull
			--- 
			PHP saves that informations in the database with note id(stickid) and user_id
			
=============================================================================================================

second Ajax:
		first sticky.js loads the page checks if there is any previouse notes for that user:
		then send an Ajax request to the PHP (jsGetPhpInfo.php)
		when user loged in and goes to stickyPage.php
		checks data base and make the json array of all information and send them back to js file (sticky.js)
		sticky.js load all previouse notes of that user on the exact same position they left them on the page 
=================================================================================================================
third Ajax     when user closes the note it will send third Ajax to php closeAjax.php
		php send back success response
		and delete it from the database
		(it has some issues did not delete for some of them :(
==========================================================================================================
4th Ajax       when user press logout button,
		it sends an Ajax request to php (logout.php)
		in php it unsets and destroys the sessions
		send back success response
		sticky.js file when gets success answer , it will redirect the user to loginPage.php 
======================================================================================================

			

